 * Running on http://0.0.0.0:8084/ (Press CTRL+C to quit)
10.215.137.21 - - [21/Feb/2018 18:42:53] "GET /configbackup/5 HTTP/1.1" 200 -
10.215.137.21 - - [21/Feb/2018 18:45:20] "GET /configbackup/5 HTTP/1.1" 200 -
[2018-02-22 06:32:34,572] ERROR in app: Exception on /configbackup/5 [GET]
Traceback (most recent call last):
  File "/usr/lib64/python2.7/site-packages/flask/app.py", line 1982, in wsgi_app
    response = self.full_dispatch_request()
  File "/usr/lib64/python2.7/site-packages/flask/app.py", line 1614, in full_dispatch_request
    rv = self.handle_user_exception(e)
  File "/usr/lib64/python2.7/site-packages/flask/app.py", line 1517, in handle_user_exception
    reraise(exc_type, exc_value, tb)
  File "/usr/lib64/python2.7/site-packages/flask/app.py", line 1612, in full_dispatch_request
    rv = self.dispatch_request()
  File "/usr/lib64/python2.7/site-packages/flask/app.py", line 1598, in dispatch_request
    return self.view_functions[rule.endpoint](**req.view_args)
  File "/usr/lib/python2.7/site-packages/connexion/decorators/decorator.py", line 66, in wrapper
    response = function(request)
  File "/usr/lib/python2.7/site-packages/connexion/decorators/validation.py", line 293, in wrapper
    return function(request)
  File "/usr/lib/python2.7/site-packages/connexion/decorators/decorator.py", line 42, in wrapper
    response = function(request)
  File "/usr/lib/python2.7/site-packages/connexion/decorators/parameter.py", line 219, in wrapper
    return function(**kwargs)
  File "/usr/apps/oneems/python/CISCO/asr920/bkup/config_backup.py", line 234, in perform_cb
    entry = fetch_from_db(tblname="nodes",filter_={"id":node_id})
  File "/usr/apps/oneems/python/CISCO/asr920/bkup/dynamic_mapper.py", line 166, in fetch_from_db
    dataframe = get_table_schema(tblname=tbl_name,blank=False)
  File "/usr/apps/oneems/python/CISCO/asr920/bkup/dynamic_mapper.py", line 109, in get_table_schema
    CURSOR.execute(sql)
  File "/usr/lib64/python2.7/site-packages/MySQLdb/cursors.py", line 205, in execute
    self.errorhandler(self, exc, value)
  File "/usr/lib64/python2.7/site-packages/MySQLdb/connections.py", line 36, in defaulterrorhandler
    raise errorclass, errorvalue
OperationalError: (2006, 'MySQL server has gone away')
10.215.137.21 - - [22/Feb/2018 06:32:34] "GET /configbackup/5 HTTP/1.1" 500 -
[2018-02-22 06:32:50,274] ERROR in app: Exception on /configbackup/3 [GET]
Traceback (most recent call last):
  File "/usr/lib64/python2.7/site-packages/flask/app.py", line 1982, in wsgi_app
    response = self.full_dispatch_request()
  File "/usr/lib64/python2.7/site-packages/flask/app.py", line 1614, in full_dispatch_request
    rv = self.handle_user_exception(e)
  File "/usr/lib64/python2.7/site-packages/flask/app.py", line 1517, in handle_user_exception
    reraise(exc_type, exc_value, tb)
  File "/usr/lib64/python2.7/site-packages/flask/app.py", line 1612, in full_dispatch_request
    rv = self.dispatch_request()
  File "/usr/lib64/python2.7/site-packages/flask/app.py", line 1598, in dispatch_request
    return self.view_functions[rule.endpoint](**req.view_args)
  File "/usr/lib/python2.7/site-packages/connexion/decorators/decorator.py", line 66, in wrapper
    response = function(request)
  File "/usr/lib/python2.7/site-packages/connexion/decorators/validation.py", line 293, in wrapper
    return function(request)
  File "/usr/lib/python2.7/site-packages/connexion/decorators/decorator.py", line 42, in wrapper
    response = function(request)
  File "/usr/lib/python2.7/site-packages/connexion/decorators/parameter.py", line 219, in wrapper
    return function(**kwargs)
  File "/usr/apps/oneems/python/CISCO/asr920/bkup/config_backup.py", line 234, in perform_cb
    entry = fetch_from_db(tblname="nodes",filter_={"id":node_id})
  File "/usr/apps/oneems/python/CISCO/asr920/bkup/dynamic_mapper.py", line 166, in fetch_from_db
    dataframe = get_table_schema(tblname=tbl_name,blank=False)
  File "/usr/apps/oneems/python/CISCO/asr920/bkup/dynamic_mapper.py", line 109, in get_table_schema
    CURSOR.execute(sql)
  File "/usr/lib64/python2.7/site-packages/MySQLdb/cursors.py", line 205, in execute
    self.errorhandler(self, exc, value)
  File "/usr/lib64/python2.7/site-packages/MySQLdb/connections.py", line 36, in defaulterrorhandler
    raise errorclass, errorvalue
OperationalError: (2006, 'MySQL server has gone away')
10.215.137.21 - - [22/Feb/2018 06:32:50] "GET /configbackup/3 HTTP/1.1" 500 -
[2018-02-22 06:37:25,069] ERROR in app: Exception on /configbackup/5 [GET]
Traceback (most recent call last):
  File "/usr/lib64/python2.7/site-packages/flask/app.py", line 1982, in wsgi_app
    response = self.full_dispatch_request()
  File "/usr/lib64/python2.7/site-packages/flask/app.py", line 1614, in full_dispatch_request
    rv = self.handle_user_exception(e)
  File "/usr/lib64/python2.7/site-packages/flask/app.py", line 1517, in handle_user_exception
    reraise(exc_type, exc_value, tb)
  File "/usr/lib64/python2.7/site-packages/flask/app.py", line 1612, in full_dispatch_request
    rv = self.dispatch_request()
  File "/usr/lib64/python2.7/site-packages/flask/app.py", line 1598, in dispatch_request
    return self.view_functions[rule.endpoint](**req.view_args)
  File "/usr/lib/python2.7/site-packages/connexion/decorators/decorator.py", line 66, in wrapper
    response = function(request)
  File "/usr/lib/python2.7/site-packages/connexion/decorators/validation.py", line 293, in wrapper
    return function(request)
  File "/usr/lib/python2.7/site-packages/connexion/decorators/decorator.py", line 42, in wrapper
    response = function(request)
  File "/usr/lib/python2.7/site-packages/connexion/decorators/parameter.py", line 219, in wrapper
    return function(**kwargs)
  File "/usr/apps/oneems/python/CISCO/asr920/bkup/config_backup.py", line 234, in perform_cb
    entry = fetch_from_db(tblname="nodes",filter_={"id":node_id})
  File "/usr/apps/oneems/python/CISCO/asr920/bkup/dynamic_mapper.py", line 166, in fetch_from_db
    dataframe = get_table_schema(tblname=tbl_name,blank=False)
  File "/usr/apps/oneems/python/CISCO/asr920/bkup/dynamic_mapper.py", line 109, in get_table_schema
    CURSOR.execute(sql)
  File "/usr/lib64/python2.7/site-packages/MySQLdb/cursors.py", line 205, in execute
    self.errorhandler(self, exc, value)
  File "/usr/lib64/python2.7/site-packages/MySQLdb/connections.py", line 36, in defaulterrorhandler
    raise errorclass, errorvalue
OperationalError: (2006, 'MySQL server has gone away')
10.215.137.21 - - [22/Feb/2018 06:37:25] "GET /configbackup/5 HTTP/1.1" 500 -
[2018-02-22 06:37:29,095] ERROR in app: Exception on /configbackup/7 [GET]
Traceback (most recent call last):
  File "/usr/lib64/python2.7/site-packages/flask/app.py", line 1982, in wsgi_app
    response = self.full_dispatch_request()
  File "/usr/lib64/python2.7/site-packages/flask/app.py", line 1614, in full_dispatch_request
    rv = self.handle_user_exception(e)
  File "/usr/lib64/python2.7/site-packages/flask/app.py", line 1517, in handle_user_exception
    reraise(exc_type, exc_value, tb)
  File "/usr/lib64/python2.7/site-packages/flask/app.py", line 1612, in full_dispatch_request
    rv = self.dispatch_request()
  File "/usr/lib64/python2.7/site-packages/flask/app.py", line 1598, in dispatch_request
    return self.view_functions[rule.endpoint](**req.view_args)
  File "/usr/lib/python2.7/site-packages/connexion/decorators/decorator.py", line 66, in wrapper
    response = function(request)
  File "/usr/lib/python2.7/site-packages/connexion/decorators/validation.py", line 293, in wrapper
    return function(request)
  File "/usr/lib/python2.7/site-packages/connexion/decorators/decorator.py", line 42, in wrapper
    response = function(request)
  File "/usr/lib/python2.7/site-packages/connexion/decorators/parameter.py", line 219, in wrapper
    return function(**kwargs)
  File "/usr/apps/oneems/python/CISCO/asr920/bkup/config_backup.py", line 234, in perform_cb
    entry = fetch_from_db(tblname="nodes",filter_={"id":node_id})
  File "/usr/apps/oneems/python/CISCO/asr920/bkup/dynamic_mapper.py", line 166, in fetch_from_db
    dataframe = get_table_schema(tblname=tbl_name,blank=False)
  File "/usr/apps/oneems/python/CISCO/asr920/bkup/dynamic_mapper.py", line 109, in get_table_schema
    CURSOR.execute(sql)
  File "/usr/lib64/python2.7/site-packages/MySQLdb/cursors.py", line 205, in execute
    self.errorhandler(self, exc, value)
  File "/usr/lib64/python2.7/site-packages/MySQLdb/connections.py", line 36, in defaulterrorhandler
    raise errorclass, errorvalue
OperationalError: (2006, 'MySQL server has gone away')
10.215.137.21 - - [22/Feb/2018 06:37:29] "GET /configbackup/7 HTTP/1.1" 500 -
[2018-02-22 06:38:18,220] ERROR in app: Exception on /configbackup/7 [GET]
Traceback (most recent call last):
  File "/usr/lib64/python2.7/site-packages/flask/app.py", line 1982, in wsgi_app
    response = self.full_dispatch_request()
  File "/usr/lib64/python2.7/site-packages/flask/app.py", line 1614, in full_dispatch_request
    rv = self.handle_user_exception(e)
  File "/usr/lib64/python2.7/site-packages/flask/app.py", line 1517, in handle_user_exception
    reraise(exc_type, exc_value, tb)
  File "/usr/lib64/python2.7/site-packages/flask/app.py", line 1612, in full_dispatch_request
    rv = self.dispatch_request()
  File "/usr/lib64/python2.7/site-packages/flask/app.py", line 1598, in dispatch_request
    return self.view_functions[rule.endpoint](**req.view_args)
  File "/usr/lib/python2.7/site-packages/connexion/decorators/decorator.py", line 66, in wrapper
    response = function(request)
  File "/usr/lib/python2.7/site-packages/connexion/decorators/validation.py", line 293, in wrapper
    return function(request)
  File "/usr/lib/python2.7/site-packages/connexion/decorators/decorator.py", line 42, in wrapper
    response = function(request)
  File "/usr/lib/python2.7/site-packages/connexion/decorators/parameter.py", line 219, in wrapper
    return function(**kwargs)
  File "/usr/apps/oneems/python/CISCO/asr920/bkup/config_backup.py", line 234, in perform_cb
    entry = fetch_from_db(tblname="nodes",filter_={"id":node_id})
  File "/usr/apps/oneems/python/CISCO/asr920/bkup/dynamic_mapper.py", line 166, in fetch_from_db
    dataframe = get_table_schema(tblname=tbl_name,blank=False)
  File "/usr/apps/oneems/python/CISCO/asr920/bkup/dynamic_mapper.py", line 109, in get_table_schema
    CURSOR.execute(sql)
  File "/usr/lib64/python2.7/site-packages/MySQLdb/cursors.py", line 205, in execute
    self.errorhandler(self, exc, value)
  File "/usr/lib64/python2.7/site-packages/MySQLdb/connections.py", line 36, in defaulterrorhandler
    raise errorclass, errorvalue
OperationalError: (2006, 'MySQL server has gone away')
10.215.137.21 - - [22/Feb/2018 06:38:18] "GET /configbackup/7 HTTP/1.1" 500 -
[2018-02-22 06:42:43,738] ERROR in app: Exception on /configbackup/2 [GET]
Traceback (most recent call last):
  File "/usr/lib64/python2.7/site-packages/flask/app.py", line 1982, in wsgi_app
    response = self.full_dispatch_request()
  File "/usr/lib64/python2.7/site-packages/flask/app.py", line 1614, in full_dispatch_request
    rv = self.handle_user_exception(e)
  File "/usr/lib64/python2.7/site-packages/flask/app.py", line 1517, in handle_user_exception
    reraise(exc_type, exc_value, tb)
  File "/usr/lib64/python2.7/site-packages/flask/app.py", line 1612, in full_dispatch_request
    rv = self.dispatch_request()
  File "/usr/lib64/python2.7/site-packages/flask/app.py", line 1598, in dispatch_request
    return self.view_functions[rule.endpoint](**req.view_args)
  File "/usr/lib/python2.7/site-packages/connexion/decorators/decorator.py", line 66, in wrapper
    response = function(request)
  File "/usr/lib/python2.7/site-packages/connexion/decorators/validation.py", line 293, in wrapper
    return function(request)
  File "/usr/lib/python2.7/site-packages/connexion/decorators/decorator.py", line 42, in wrapper
    response = function(request)
  File "/usr/lib/python2.7/site-packages/connexion/decorators/parameter.py", line 219, in wrapper
    return function(**kwargs)
  File "/usr/apps/oneems/python/CISCO/asr920/bkup/config_backup.py", line 234, in perform_cb
    entry = fetch_from_db(tblname="nodes",filter_={"id":node_id})
  File "/usr/apps/oneems/python/CISCO/asr920/bkup/dynamic_mapper.py", line 166, in fetch_from_db
    dataframe = get_table_schema(tblname=tbl_name,blank=False)
  File "/usr/apps/oneems/python/CISCO/asr920/bkup/dynamic_mapper.py", line 109, in get_table_schema
    CURSOR.execute(sql)
  File "/usr/lib64/python2.7/site-packages/MySQLdb/cursors.py", line 205, in execute
    self.errorhandler(self, exc, value)
  File "/usr/lib64/python2.7/site-packages/MySQLdb/connections.py", line 36, in defaulterrorhandler
    raise errorclass, errorvalue
OperationalError: (2006, 'MySQL server has gone away')
10.215.137.21 - - [22/Feb/2018 06:42:43] "GET /configbackup/2 HTTP/1.1" 500 -
 * Running on http://0.0.0.0:8084/ (Press CTRL+C to quit)
10.215.137.21 - - [22/Feb/2018 06:44:44] "GET /configbackup/2 HTTP/1.1" 200 -
10.215.137.21 - - [22/Feb/2018 06:53:25] "GET /configbackup/118 HTTP/1.1" 200 -
10.215.137.21 - - [22/Feb/2018 06:54:00] "GET /configbackup/32 HTTP/1.1" 200 -
 * Running on http://0.0.0.0:8084/ (Press CTRL+C to quit)
10.215.137.21 - - [22/Feb/2018 07:48:44] "GET /configbackup/118 HTTP/1.1" 200 -
10.215.137.21 - - [22/Feb/2018 10:29:25] "GET /configbackup/12975 HTTP/1.1" 200 -
10.215.137.21 - - [22/Feb/2018 11:43:16] "GET /configbackup/7197 HTTP/1.1" 200 -
[2018-02-23 07:47:20,606] ERROR in app: Exception on /configbackup/7197 [GET]
Traceback (most recent call last):
  File "/usr/lib64/python2.7/site-packages/flask/app.py", line 1982, in wsgi_app
    response = self.full_dispatch_request()
  File "/usr/lib64/python2.7/site-packages/flask/app.py", line 1614, in full_dispatch_request
    rv = self.handle_user_exception(e)
  File "/usr/lib64/python2.7/site-packages/flask/app.py", line 1517, in handle_user_exception
    reraise(exc_type, exc_value, tb)
  File "/usr/lib64/python2.7/site-packages/flask/app.py", line 1612, in full_dispatch_request
    rv = self.dispatch_request()
  File "/usr/lib64/python2.7/site-packages/flask/app.py", line 1598, in dispatch_request
    return self.view_functions[rule.endpoint](**req.view_args)
  File "/usr/lib/python2.7/site-packages/connexion/decorators/decorator.py", line 66, in wrapper
    response = function(request)
  File "/usr/lib/python2.7/site-packages/connexion/decorators/validation.py", line 293, in wrapper
    return function(request)
  File "/usr/lib/python2.7/site-packages/connexion/decorators/decorator.py", line 42, in wrapper
    response = function(request)
  File "/usr/lib/python2.7/site-packages/connexion/decorators/parameter.py", line 219, in wrapper
    return function(**kwargs)
  File "/usr/apps/oneems/python/CISCO/asr920/bkup/config_backup.py", line 234, in perform_cb
    entry = fetch_from_db(tblname="nodes",filter_={"id":node_id})
  File "/usr/apps/oneems/python/CISCO/asr920/bkup/dynamic_mapper.py", line 166, in fetch_from_db
    dataframe = get_table_schema(tblname=tbl_name,blank=False)
  File "/usr/apps/oneems/python/CISCO/asr920/bkup/dynamic_mapper.py", line 109, in get_table_schema
    CURSOR.execute(sql)
  File "/usr/lib64/python2.7/site-packages/MySQLdb/cursors.py", line 205, in execute
    self.errorhandler(self, exc, value)
  File "/usr/lib64/python2.7/site-packages/MySQLdb/connections.py", line 36, in defaulterrorhandler
    raise errorclass, errorvalue
OperationalError: (2006, 'MySQL server has gone away')
10.215.137.21 - - [23/Feb/2018 07:47:20] "GET /configbackup/7197 HTTP/1.1" 500 -
[2018-02-23 07:47:30,733] ERROR in app: Exception on /configbackup/7205 [GET]
Traceback (most recent call last):
  File "/usr/lib64/python2.7/site-packages/flask/app.py", line 1982, in wsgi_app
    response = self.full_dispatch_request()
  File "/usr/lib64/python2.7/site-packages/flask/app.py", line 1614, in full_dispatch_request
    rv = self.handle_user_exception(e)
  File "/usr/lib64/python2.7/site-packages/flask/app.py", line 1517, in handle_user_exception
    reraise(exc_type, exc_value, tb)
  File "/usr/lib64/python2.7/site-packages/flask/app.py", line 1612, in full_dispatch_request
    rv = self.dispatch_request()
  File "/usr/lib64/python2.7/site-packages/flask/app.py", line 1598, in dispatch_request
    return self.view_functions[rule.endpoint](**req.view_args)
  File "/usr/lib/python2.7/site-packages/connexion/decorators/decorator.py", line 66, in wrapper
    response = function(request)
  File "/usr/lib/python2.7/site-packages/connexion/decorators/validation.py", line 293, in wrapper
    return function(request)
  File "/usr/lib/python2.7/site-packages/connexion/decorators/decorator.py", line 42, in wrapper
    response = function(request)
  File "/usr/lib/python2.7/site-packages/connexion/decorators/parameter.py", line 219, in wrapper
    return function(**kwargs)
  File "/usr/apps/oneems/python/CISCO/asr920/bkup/config_backup.py", line 234, in perform_cb
    entry = fetch_from_db(tblname="nodes",filter_={"id":node_id})
  File "/usr/apps/oneems/python/CISCO/asr920/bkup/dynamic_mapper.py", line 166, in fetch_from_db
    dataframe = get_table_schema(tblname=tbl_name,blank=False)
  File "/usr/apps/oneems/python/CISCO/asr920/bkup/dynamic_mapper.py", line 109, in get_table_schema
    CURSOR.execute(sql)
  File "/usr/lib64/python2.7/site-packages/MySQLdb/cursors.py", line 205, in execute
    self.errorhandler(self, exc, value)
  File "/usr/lib64/python2.7/site-packages/MySQLdb/connections.py", line 36, in defaulterrorhandler
    raise errorclass, errorvalue
OperationalError: (2006, 'MySQL server has gone away')
10.215.137.21 - - [23/Feb/2018 07:47:30] "GET /configbackup/7205 HTTP/1.1" 500 -
 * Running on http://0.0.0.0:8084/ (Press CTRL+C to quit)
[2018-02-23 08:00:12,672] ERROR in app: Exception on /configbackup/7197 [GET]
Traceback (most recent call last):
  File "/usr/lib64/python2.7/site-packages/flask/app.py", line 1982, in wsgi_app
    response = self.full_dispatch_request()
  File "/usr/lib64/python2.7/site-packages/flask/app.py", line 1614, in full_dispatch_request
    rv = self.handle_user_exception(e)
  File "/usr/lib64/python2.7/site-packages/flask/app.py", line 1517, in handle_user_exception
    reraise(exc_type, exc_value, tb)
  File "/usr/lib64/python2.7/site-packages/flask/app.py", line 1612, in full_dispatch_request
    rv = self.dispatch_request()
  File "/usr/lib64/python2.7/site-packages/flask/app.py", line 1598, in dispatch_request
    return self.view_functions[rule.endpoint](**req.view_args)
  File "/usr/lib/python2.7/site-packages/connexion/decorators/decorator.py", line 66, in wrapper
    response = function(request)
  File "/usr/lib/python2.7/site-packages/connexion/decorators/validation.py", line 293, in wrapper
    return function(request)
  File "/usr/lib/python2.7/site-packages/connexion/decorators/decorator.py", line 42, in wrapper
    response = function(request)
  File "/usr/lib/python2.7/site-packages/connexion/decorators/parameter.py", line 219, in wrapper
    return function(**kwargs)
  File "/usr/apps/oneems/python/CISCO/asr920/bkup/config_backup.py", line 251, in perform_cb
    router_path="bootflash" )	)
  File "/usr/apps/oneems/python/CISCO/asr920/bkup/config_backup.py", line 195, in config_backup
    server_files = os.listdir(spath)
OSError: [Errno 13] Permission denied: '/usr/apps/oneems/config/bkup/greatlakes'
10.215.137.21 - - [23/Feb/2018 08:00:12] "GET /configbackup/7197 HTTP/1.1" 500 -
{'status': True, 'data': '[i] created connection'}
[i] SNMP command : snmpwalk -v2c -c 2Y2LHTZP31 10.202.97.148 1.3.6.1.2.1.1
[i] snmp data : {'sys_location': '', 'upsince': '452 days 7:14', 'nodeVersion': '15.6(1)S1', 'market': 'OPW', 'devicename': 'LWCTOH02T2A-P-CI-0236-01', 'deviceos': 'IOS-XE', 'lastpolled': '02-23-2018 08:00', 'datepolled': datetime.date(2018, 2, 23), 'deviceseries': 'ASR1000', 'sys_contact': '', 'model': 'CISCO', 'timepolled': '20182302 08:00:09'}
[i] name : LWCTOH02T2A-P-CI-0236-01-10.202.97.148-RUNNINGCONFIG-23-0-20182302080009.cfg
[i] exec dir bootflash: on router ipaddr:10.202.97.148, username:njbbcpnebh, password:JAxa466
[i] ROUTER FILES : ['lost+found', 'tracelogs', 'asr1000rp1-advipservicesk9.02.04.01.122-33.XND1.bin', '.installer', 'core', '.prst_sync', '.rollback_timer', 'CLMBOHIQT1A-CI-236-01.txt', 'no', '384_backup_9may10', 'pre_QOS_Config_13Oct10', 'post_QOS_Config_13Oct10', 'asr1000rp1-adventerprisek9.03.02.01.S.151-1.S1.bin', 'CLMBOHIQT1A-CI-236-01_backup_22Apr11', 'CLMBOHIQT1A-CI-236-01_postUpg_22Apr11', 'asr1000rp1-advipservicesk9.03.02.01.S.151-1.S1.bin', 'pre3.2.1upgrade_7Sept11', 'post3.2.1upgrade_7Sept11', 'LWCTOH02T2A-P-CI-0236-01.txt', 'clmbbackup', 'config20120321', 'write', 'kurzweg', 'logging20131031.txt', 'asr1000-rommon.153-1r.S.pkg', 'asr1000rp1-advipservicesk9.V153_2_S1_CSCUI03023.bin', 'config20140530', 'asr1000-rommon.153-3r.S.pkg', 'asr1000rp1-advipservicesk9.03.13.00.S.154-3.S-ext.bin', 'config20141110', 'config20141117', 'config20150817', 'logging2015824.txt', 'logging2015825.txt', 'logging201599.txt', 'logging2015910.txt', 'logging20151025.txt', 'logging2015114.txt', 'logging2015115.txt', 'logging2015118.txt', 'logging20151110.txt', 'logging20151111.txt', 'logging20151115.txt', 'logging20151116.txt', 'logging20151117.txt', 'logging20151122.txt', 'logging20151129.txt', 'logging20151130.txt', 'logging2015122.txt', 'logging2015123.txt', 'logging2015126.txt', 'config20160407', 'logging2016629.txt', 'logging2016718.txt', 'logging2016719.txt', 'logging201689.txt', 'logging2016824.txt', 'logging2016830.txt', 'config20160907', 'logging201697.txt', 'logging2016912.txt', 'logging2016926.txt', 'logging2016929.txt', 'logging2016106.txt', 'logging20161011.txt', 'logging20161110.txt', 'logging20161115.txt', 'PreRunConfig1115.cfg', 'asr1000-rommon-155-3r.S1.pkg', 'logging20161121.txt', 'logging20161117.txt', 'asr1000rp1-advipservicesk9.03.17.01.S.156-1.S1-std.bin', 'logging20161129.txt', 'logging20161215.txt', 'logging2017112.txt', 'logging2017117.txt', 'PAMUserPRE', 'logging2017103.txt', 'logging20171019.txt', 'config20171115_pre-bw-upgrade', 'oneEMSPRE', 'LWCTOH02T2A-P-CI-0236-01-10.202.97.148-RUNNINGCONFIG-23-0-20182302152257.cfg', 'free)']
[i] SNMP command : snmpwalk -v2c -c 2Y2LHTZP31 10.202.97.148 1.3.6.1.2.1.1
[i] snmp data : {'sys_location': '', 'upsince': '452 days 7:17', 'nodeVersion': '15.6(1)S1', 'market': 'OPW', 'devicename': 'LWCTOH02T2A-P-CI-0236-01', 'deviceos': 'IOS-XE', 'lastpolled': '02-23-2018 08:03', 'datepolled': datetime.date(2018, 2, 23), 'deviceseries': 'ASR1000', 'sys_contact': '', 'model': 'CISCO', 'timepolled': '20182302 08:03:27'}
[i] name : LWCTOH02T2A-P-CI-0236-01-10.202.97.148-RUNNINGCONFIG-23-0-20182302080327.cfg
[i] exec dir bootflash: on router ipaddr:10.202.97.148, username:njbbcpnebh, password:JAxa466
[i] ROUTER FILES : ['lost+found', 'tracelogs', 'asr1000rp1-advipservicesk9.02.04.01.122-33.XND1.bin', '.installer', 'core', '.prst_sync', '.rollback_timer', 'CLMBOHIQT1A-CI-236-01.txt', 'no', '384_backup_9may10', 'pre_QOS_Config_13Oct10', 'post_QOS_Config_13Oct10', 'asr1000rp1-adventerprisek9.03.02.01.S.151-1.S1.bin', 'CLMBOHIQT1A-CI-236-01_backup_22Apr11', 'CLMBOHIQT1A-CI-236-01_postUpg_22Apr11', 'asr1000rp1-advipservicesk9.03.02.01.S.151-1.S1.bin', 'pre3.2.1upgrade_7Sept11', 'post3.2.1upgrade_7Sept11', 'LWCTOH02T2A-P-CI-0236-01.txt', 'clmbbackup', 'config20120321', 'write', 'kurzweg', 'logging20131031.txt', 'asr1000-rommon.153-1r.S.pkg', 'asr1000rp1-advipservicesk9.V153_2_S1_CSCUI03023.bin', 'config20140530', 'asr1000-rommon.153-3r.S.pkg', 'as[2018-02-23 08:03:30,483] ERROR in app: Exception on /configbackup/7197 [GET]
Traceback (most recent call last):
  File "/usr/lib64/python2.7/site-packages/flask/app.py", line 1982, in wsgi_app
    response = self.full_dispatch_request()
  File "/usr/lib64/python2.7/site-packages/flask/app.py", line 1614, in full_dispatch_request
    rv = self.handle_user_exception(e)
  File "/usr/lib64/python2.7/site-packages/flask/app.py", line 1517, in handle_user_exception
    reraise(exc_type, exc_value, tb)
  File "/usr/lib64/python2.7/site-packages/flask/app.py", line 1612, in full_dispatch_request
    rv = self.dispatch_request()
  File "/usr/lib64/python2.7/site-packages/flask/app.py", line 1598, in dispatch_request
    return self.view_functions[rule.endpoint](**req.view_args)
  File "/usr/lib/python2.7/site-packages/connexion/decorators/decorator.py", line 66, in wrapper
    response = function(request)
  File "/usr/lib/python2.7/site-packages/connexion/decorators/validation.py", line 293, in wrapper
    return function(request)
  File "/usr/lib/python2.7/site-packages/connexion/decorators/decorator.py", line 42, in wrapper
    response = function(request)
  File "/usr/lib/python2.7/site-packages/connexion/decorators/parameter.py", line 219, in wrapper
    return function(**kwargs)
  File "/usr/apps/oneems/python/CISCO/asr920/bkup/config_backup.py", line 251, in perform_cb
    router_path="bootflash" )	)
  File "/usr/apps/oneems/python/CISCO/asr920/bkup/config_backup.py", line 195, in config_backup
    server_files = os.listdir(spath)
OSError: [Errno 13] Permission denied: '/usr/apps/oneems/config/bkup/greatlakes'
10.215.137.21 - - [23/Feb/2018 08:03:30] "GET /configbackup/7197 HTTP/1.1" 500 -
[2018-02-23 08:05:02,623] ERROR in app: Exception on /configbackup/7205 [GET]
Traceback (most recent call last):
  File "/usr/lib64/python2.7/site-packages/flask/app.py", line 1982, in wsgi_app
    response = self.full_dispatch_request()
  File "/usr/lib64/python2.7/site-packages/flask/app.py", line 1614, in full_dispatch_request
    rv = self.handle_user_exception(e)
  File "/usr/lib64/python2.7/site-packages/flask/app.py", line 1517, in handle_user_exception
    reraise(exc_type, exc_value, tb)
  File "/usr/lib64/python2.7/site-packages/flask/app.py", line 1612, in full_dispatch_request
    rv = self.dispatch_request()
  File "/usr/lib64/python2.7/site-packages/flask/app.py", line 1598, in dispatch_request
    return self.view_functions[rule.endpoint](**req.view_args)
  File "/usr/lib/python2.7/site-packages/connexion/decorators/decorator.py", line 66, in wrapper
    response = function(request)
  File "/usr/lib/python2.7/site-packages/connexion/decorators/validation.py", line 293, in wrapper
    return function(request)
  File "/usr/lib/python2.7/site-packages/connexion/decorators/decorator.py", line 42, in wrapper
    response = function(request)
  File "/usr/lib/python2.7/site-packages/connexion/decorators/parameter.py", line 219, in wrapper
    return function(**kwargs)
  File "/usr/apps/oneems/python/CISCO/asr920/bkup/config_backup.py", line 251, in perform_cb
    router_path="bootflash" )	)
  File "/usr/apps/oneems/python/CISCO/asr920/bkup/config_backup.py", line 195, in config_backup
    server_files = os.listdir(spath)
OSError: [Errno 13] Permission denied: '/usr/apps/oneems/config/bkup/greatlakes'
10.215.137.21 - - [23/Feb/2018 08:05:02] "GET /configbackup/7205 HTTP/1.1" 500 -
 * Running on http://0.0.0.0:8084/ (Press CTRL+C to quit)
10.215.137.21 - - [23/Feb/2018 11:40:29] "GET /configbackup/7205 HTTP/1.1" 200 -
 * Running on http://0.0.0.0:8084/ (Press CTRL+C to quit)
{'status': True, 'data': '[i] created connection'}
[i] SNMP command : snmpwalk -v2c -c 2Y2LHTZP31 10.202.97.148 1.3.6.1.2.1.1
[i] snmp data : {'sys_location': '', 'upsince': '452 days 11:40', 'nodeVersion': '15.6(1)S1', 'market': 'OPW', 'devicename': 'LWCTOH02T2A-P-CI-0236-01', 'deviceos': 'IOS-XE', 'lastpolled': '02-23-2018 12:26', 'datepolled': datetime.date(2018, 2, 23), 'deviceseries': 'ASR1000', 'sys_contact': '', 'model': 'CISCO', 'timepolled': '20182302 12:26:27'}
[i] name : LWCTOH02T2A-P-CI-0236-01-10.202.97.148-RUNNINGCONFIG-23-0-20182302122627.cfg
[i] exec dir bootflash: on router ipaddr:10.202.97.148, username:njbbcpnebh, password:JAxa466
[i] ROUTER FILES : ['lost+found', 'tracelogs', 'asr1000rp1-advipservicesk9.02.04.01.122-33.XND1.bin', '.installer', 'core', '.prst_sync', '.rollback_timer', 'CLMBOHIQT1A-CI-236-01.txt', 'no', '384_backup_9may10', 'pre_QOS_Config_13Oct10', 'post_QOS_Config_13Oct10', 'asr1000rp1-adventerprisek9.03.02.01.S.151-1.S1.bin', 'CLMBOHIQT1A-CI-236-01_backup_22Apr11', 'CLMBOHIQT1A-CI-236-01_postUpg_22Apr11', 'asr1000rp1-advipservicesk9.03.02.01.S.151-1.S1.bin', 'pre3.2.1upgrade_7Sept11', 'post3.2.1upgrade_7Sept11', 'LWCTOH02T2A-P-CI-0236-01.txt', 'clmbbackup', 'config20120321', 'write', 'kurzweg', 'logging20131031.txt', 'asr1000-rommon.153-1r.S.pkg', 'asr1000rp1-advipservicesk9.V153_2_S1_CSCUI03023.bin', 'config20140530', 'asr1000-rommon.153-3r.S.pkg', 'asr1000rp1-advipservicesk9.03.13.00.S.154-3.S-ext.bin', 'config20141110', 'config20141117', 'config20150817', 'logging2015824.txt', 'logging2015825.txt', 'logging201599.txt', 'logging2015910.txt', 'logging20151025.txt', 'logging2015114.txt', 'logging2015115.txt', 'logging2015118.txt', 'logging20151110.txt', 'logging20151111.txt', 'logging20151115.txt', 'logging20151116.txt', 'logging20151117.txt', 'logging20151122.txt', 'logging20151129.txt', 'logging20151130.txt', 'logging2015122.txt', 'logging2015123.txt', 'logging2015126.txt', 'config20160407', 'logging2016629.txt', 'logging2016718.txt', 'logging2016719.txt', 'logging201689.txt', 'logging2016824.txt', 'logging2016830.txt', 'config20160907', 'logging201697.txt', 'logging2016912.txt', 'logging2016926.txt', 'logging2016929.txt', 'logging2016106.txt', 'logging20161011.txt', 'logging20161110.txt', 'logging20161115.txt', 'PreRunConfig1115.cfg', 'asr1000-rommon-155-3r.S1.pkg', 'logging20161121.txt', 'logging20161117.txt', 'asr1000rp1-advipservicesk9.03.17.01.S.156-1.S1-std.bin', 'logging20161129.txt', 'logging20161215.txt', 'logging2017112.txt', 'logging2017117.txt', 'PAMUserPRE', 'logging2017103.txt', 'logging20171019.txt', 'config20171115_pre-bw-upgrade', 'oneEMSPRE', 'LWCTOH02T2A-P-CI-0236-01-10.202.97.148-RUNNINGCONFIG-23-0-20182302152257.cfg', 'LWCTOH02T2A-P-CI-0236-01-10.202.97.148-RUNNINGCONFIG-23-0-20182302082507.cfg', 'free)']
[i] SERVER FILES : []
[i] exec copy system:running-config bootflash:LWCTOH02T2A-P-CI-0236-01-10.202.97.148-RUNNINGCONFIG-23-0-20182302122627.cfg on router ipaddr:10.202.97.148, username:njbbcpnebh, password:JAxa466
[i] SSH RESULT : {'output': '\r\nTHIS IS A PRIVATE NETWORK AND COMPUTING SYSTEM FOR EXCLUSIVE USE BY AUTHORIZED\r\nPERSONNEL ONLY.\r\nYou are requesting access to a private network and computing system for\r\nexclusive use by authorized persons only. If you have not been expressly\r\nauthorized to access this system by Verizon Wireless, please log off\r\nimmediately, otherwise your actions may be subject to civil and/or criminal\r\npenalties including but not limited to excessive fines and imprisonment.\r\nNOTICE TO ALL AUTHORIZED USERS:\r\nThis is a private and proprietary system owned, operated and monitored by\r\nVerizon Wireless. Use of this system and any data in transit to/from or stored\r\non this system can be accessed, intercepted, monitored, recorded, copied,\r\naudited and inspected by Verizon Wireless and disclosed to third parties and/or\r\nlaw enforcement. Your use of this system constitutes consent to such\r\nmonitoring, disclosure and associated activities. Any use that exceeds\r\nauthorization or is improper, unlawful, unintended or10.215.137.21 - - [23/Feb/2018 12:26:32] "GET /configbackup/7197 HTTP/1.1" 200 -
 not permitted (such as\r\nattempts to upload or change information; to defeat or circumvent security\r\nfeatures; or to utilize this system other than for its intended purpose) is\r\nprohibited and may result in immediate revocation of access privileges by\r\nVerizon Wireless and civil and/or criminal prosecution.\r\nBy continuing to use this system you agree to comply with all applicable\r\npolicies and procedures and consent to the terms and conditions contained\r\nherein. If you do not agree, please log off immediately.\r\n\r\nDestination filename [LWCTOH02T2A-P-CI-0236-01-10.202.97.148-RUNNINGCONFIG-23-0-20182302122627.cfg]? \r\n  \r\n22915 bytes copied in 0.613 secs (37382 bytes/sec)', 'error': ''}
[i] SCP RESULT : {'success': '/bin/sh: sshpass: command not found\n', 'error': None}
[i] response from scp [{'status': 'Success', 'data': 'LWCTOH02T2A-P-CI-0236-01-10.202.97.148-RUNNINGCONFIG-23-0-20182302122627.cfg', 'success': False}]
[i] SNMP command : snmpwalk -v2c -c 2Y2LHTZP31 10.202.97.149 1.3.6.1.2.1.1
[i] snmp data : {'sys_location': '', 'upsince': '452 days 11:26', 'nodeVersion': '15.6(1)S1', 'market': 'OPW', 'devicename': 'LWCTOH02T2A-P-CI-0268-01', 'deviceos': 'IOS-XE', 'lastpolled': '02-23-2018 12:28', 'datepolled': datetime.date(2018, 2, 23), 'deviceseries': 'ASR1000', 'sys_contact': '', 'model': 'CISCO', 'timepolled': '20182302 12:28:36'}
[i] name : LWCTOH02T2A-P-CI-0268-01-10.202.97.149-RUNNINGCONFIG-23-0-20182302122836.cfg
[i] exec dir bootflash: on router ipaddr:10.202.97.149, username:njbbcpnebh, password:JAxa466
[i] ROUTER FILES : ['lost+found', 'core', '.prst_sync', '.rollback_timer', 'tracelogs.123', 'tracelogs', '.installer', 'asr1000rp1-advipservicesk9.03.02.01.S.151-1.S1.bin', 'asr1000-rommon.153-1r.S.pkg', 'asr1000rp1-advipservicesk9.V153_2_S1_CSCUI03023.bin', 'config20140530', 'asr1000-rommon.153-3r.S.pkg', 'asr1000rp1-advipservicesk9.03.13.00.S.154-3.S-ext.bin', 'config20141110', 'config20141117', 'config20150817', 'config20160907', 'PreRunConfig1115.cfg', 'asr1000-rommon-155-3r.S1.pkg', 'asr1000rp1-advipservicesk9.03.17.01.S.156-1.S1-std.bin', 'PAMUserPRE', 'oneEMSPRE', 'free)']
[i] SERVER FILES : []
[i] exec copy system:running-config bootflash:LWCTOH02T2A-P-CI-0268-01-10.202.97.149-RUNNINGCONFIG-23-0-20182302122836.cfg on router ipaddr:10.202.97.149, username:njbbcpnebh, password:JAxa466
[i] SSH RESULT : {'output': '\r\nTHIS IS A PRIVATE NETWORK AND COMPUTING SYSTEM FOR EXCLUSIVE USE BY AUTHORIZED\r\nPERSONNEL ONLY.\r\nYou are requesting access to a private network and computing system for\r\nexclusive use by authorized persons only. If you have not been expressly\r\nauthorized to access this system by Verizon Wireless, please log off\r\nimmediately, otherwise your actions may be subject to civil and/or criminal\r\npenalties including but not limited to excessive fines and imprisonment.\r\nNOTICE TO ALL AUTHORIZED USERS:\r\nThis is a private and proprietary system owned, operated and monitored by\r\nVerizon Wireless. Use of this system and any data in transit to/from or stored\r\non this system can be accessed, intercepted, monitored, recorded, copied,\r\naudited and inspected by Verizon Wireless and disclosed to third parties and/or\r\nlaw enforcement. Your use of this system constitutes consent to such\r\nmonitoring, disclosure and associated activities. Any use that exceeds\r\nauthorization or is improper, unlawful, unintended or not permitted (such as\r\nattempts to upload or change information; to defeat or circumvent security\r\nfeatures; or to utilize this system other than for its intended purpose) is\r\nprohibited and may result in immediate revocation of access privileges by\r\nVerizon Wireless and civil and/or criminal prosecution.\r\nBy continuing to use this system you agree to comply with all applicable\r\npolicies and procedures and consent to the terms and conditions contained\r\nherein. If you do not agree, please log off immediately.\r\n\r\nDestination filename [LWCTOH02T2A-P-CI-0268-01-10.202.97.149-RUNNINGCONFIG-23-0-20182302122836.cfg]? \r\n  \r\n23340 bytes copied in 010.215.137.21 - - [23/Feb/2018 12:28:41] "GET /configbackup/7210 HTTP/1.1" 200 -
 * Running on http://0.0.0.0:8084/ (Press CTRL+C to quit)
10.215.137.21 - - [23/Feb/2018 13:03:15] "GET /configbackup/9 HTTP/1.1" 200 -
{'status': True, 'data': '[i] created connection'}
[i] SNMP command : snmpwalk -v2c -c 2Y2LHTZP31 10.198.238.8 1.3.6.1.2.1.1
[i] snmp data : {'sys_location': ' ', 'upsince': ' ', 'nodeVersion': ' ', 'market': 'OPW', 'devicename': ' ', 'deviceos': 'IOS-XE', 'lastpolled': '02-23-2018 13:03', 'datepolled': datetime.date(2018, 2, 23), 'deviceseries': ' ', 'sys_contact': ' ', 'model': 'CISCO', 'timepolled': '20182302 13:03:15'}
[i] response from scp [{'status': 'Failed', 'data': 'Not Reachable', 'success': False}]
[i] SNMP command : snmpwalk -v2c -c 2Y2LHTZP31 10.198.238.19 1.3.6.1.2.1.1
[i] snmp data : {'sys_location': '', 'upsince': '441 days 3:29', 'nodeVersion': '15.6(1)S1', 'market': 'OPW', 'devicename': 'AKROOH20T1A-P-CI-0021-01', 'deviceos': 'IOS-XE', 'lastpolled': '02-23-2018 13:04', 'datepolled': datetime.date(2018, 2, 23), 'deviceseries': 'ASR920', 'sys_contact': '', 'model': 'CISCO', 'timepolled': '20182302 13:04:10'}
[i] name : AKROOH20T1A-P-CI-0021-01-10.198.238.19-RUNNINGCONFIG-23-0-20182302130410.cfg
[i] exec dir bootflash: on router ipaddr:10.198.238.19, username:njbbcpnebh, password:JAxa466
[i] ROUTER FILES : ['lost+found', 'core', '.prst_sync', '.rollback_timer', 'tracelogs.191', 'tracelogs', '.installer', 'virtual-instance', 'PAMUserPRE', 'CAT2020V0H4_5_1463499252.lic', 'CAT2020V0H4_5_1463499280.lic', 'usb_modem', 'logging2017510.txt', 'oneEMSPRE', 'test', 'asr920-universalk9_npe.03.17.01.S.156-1.S1-std.bin', 'AKROOH20T1A-P-CI-0021-01-10.198.238.19-RUNNING_CONFIG-23-0-20182302162846.cfg', 'AKROOH20T1A-P-CI-0021-01-10.198.238.19-RUNNINGCONFIG-23-0-20182302082235.cfg', 'AKROOH20T1A-P-CI-0021-01-10.198.238.19-RUNNINGCONFIG-23-0-20182302082407.cfg', 'AKROOH20T1A-P-CI-0021-01-10.198.238.19-RUNNINGCONFIG-23-0-20182302125502.cfg', 'AKROOH20T1A-P-CI-0021-01-10.198.238.19-RUNNINGCONFIG-23-0-20182302125955.cfg', 'free)']
[i] SERVER FILES : ['junk', 'AKROOH20T1A-P-CI-0021-01-10.198.238.19-RUNNINGCONFIG-23-0-20182302125955.cfg', 'LWCTOH02T2A-P-CI-0256-02-10.202.97.235-RUNNINGCONFIG-23-0-20182302123106.cfg', 'AKROOH20T1A-P-CI-0021-01-10.198.238.19-RUNNINGCONFIG-23-0-20182302125742.cfg']
[i] FILES (DELETED) : {'AKROOH20T1A-P-CI-0021-01-10.198.238.19-RUNNINGCONFIG-23-0-20182302125955.cfg': 'DEL'}
[i] exec delete AKROOH20T1A-P-CI-0021-01-10.198.238.19-RUNNINGCONFIG-23-0-20182302125955.cfg on router ipaddr:10.198.238.19, username:njbbcpnebh, password:JAxa466
[i] DELETED FILE : {'output': '\r\n***************************************************************************\r\nNOTICE TO USERS\r\nThis is a private computer system and is for authorized use only. Users\r\n(authorized or unauthorized) have no explicit or implicit expectation of\r\nprivacy.\r\nAny or all uses of this system and all files on this system may be\r\nintercepted, monitored, recorded, copied, audited, inspected, and disclosed\r\nto authorized site and law enforcement personnel, as well as authorized\r\nofficials of other agencies, both domestic and foreign. By using this\r\nsystem, the user consents to such interception, monitoring, recording,\r\ncopying, auditing, inspection, and disclosure at the discretion of the\r\nauthorized site or personnel.\r\nUnauthorized or improper use of this system may result in administrative\r\ndisciplinary action and civil and criminal penalties. By continuing to\r\nuse this system you indicate your awareness of and consent to these terms\r\nand conditions of use. LOG OFF IMMEDIATELY if you do not agree to the\r\nconditions stated in this warning.\r\n*****************************************************************************\r\n\r\nDelete filename [AKROOH20T1A-P-CI-0021-01-10.198.238.19-RUNNINGCONFIG-23-0-20182302125955.cfg]? \r\nDelete bootflash:/AKROOH20T1A-P-CI-0021-01-10.198.238.19-RUNNINGCONFIG-23-0-20182302125955.cfg? [confirm]\r\n', 'error': ''}
[i] exec copy system:running-config bootflash:AKROOH20T1A-P-CI-0021-01-10.198.238.19-RUNNINGCONFIG-23-0-20182302130410.cfg on router ipaddr:10.198.238.19, username:njbbcpnebh, password:JAxa466
[i] SSH RESULT : {'output': '\r\n**************************************************10.215.137.21 - - [23/Feb/2018 13:04:21] "GET /configbackup/5 HTTP/1.1" 200 -
*************************\r\nNOTICE TO USERS\r\nThis is a private computer system and is for authorized use only. Users\r\n(authorized or unauthorized) have no explicit or implicit expectation of\r\nprivacy.\r\nAny or all uses of this system and all files on this system may be\r\nintercepted, monitored, recorded, copied, audited, inspected, and disclosed\r\nto authorized site and law enforcement personnel, as well as authorized\r\nofficials of other agencies, both domestic and foreign. By using this\r\nsystem, the user consents to such interception, monitoring, recording,\r\ncopying, auditing, inspection, and disclosure at the discretion of the\r\nauthorized site or personnel.\r\nUnauthorized or improper use of this system may result in administrative\r\ndisciplinary action and civil and criminal penalties. By continuing to\r\nuse this system you indicate your awareness of and consent to these terms\r\nand conditions of use. LOG OFF IMMEDIATELY if you do not agree to the\r\nconditions stated in this warning.\r\n*****************************************************************************\r\n\r\nDestination filename [AKROOH20T1A-P-CI-0021-01-10.198.238.19-RUNNINGCONFIG-23-0-20182302130410.cfg]? \r\n  \r\n23133 bytes copied in 0.676 secs (34220 bytes/sec)', 'error': ''}
[i] SCP RESULT : {'success': "Warning: Permanently added '10.198.238.19' (RSA) to the list of known hosts.\r\n", 'error': None}
[i] response from scp [{'status': 'Success', 'data': 'AKROOH20T1A-P-CI-0021-01-10.198.238.19-RUNNINGCONFIG-23-0-20182302130410.cfg', 'success': False}]
[i] SNMP command : snmpwalk -v2c -c 2Y2LHTZP31 10.202.97.148 1.3.6.1.2.1.1
[i] snmp data : {'sys_location': '', 'upsince': '452 days 12:46', 'nodeVersion': '15.6(1)S1', 'market': 'OPW', 'devicename': 'LWCTOH02T2A-P-CI-0236-01', 'deviceos': 'IOS-XE', 'lastpolled': '02-23-2018 13:32', 'datepolled': datetime.date(2018, 2, 23), 'deviceseries': 'ASR1000', 'sys_contact': '', 'model': 'CISCO', 'timepolled': '20182302 13:32:12'}
[i] name : LWCTOH02T2A-P-CI-0236-01-10.202.97.148-RUNNINGCONFIG-23-0-20182302133212.cfg
[i] exec dir bootflash: on router ipaddr:10.202.97.148, username:njbbcpnebh, password:JAxa466
[i] ROUTER FILES : ['lost+found', 'tracelogs', 'asr1000rp1-advipservicesk9.02.04.01.122-33.XND1.bin', '.installer', 'core', '.prst_sync', '.rollback_timer', 'CLMBOHIQT1A-CI-236-01.txt', 'no', '384_backup_9may10', 'pre_QOS_Config_13Oct10', 'post_QOS_Config_13Oct10', 'asr1000rp1-adventerprisek9.03.02.01.S.151-1.S1.bin', 'CLMBOHIQT1A-CI-236-01_backup_22Apr11', 'CLMBOHIQT1A-CI-236-01_postUpg_22Apr11', 'asr1000rp1-advipservicesk9.03.02.01.S.151-1.S1.bin', 'pre3.2.1upgrade_7Sept11', 'post3.2.1upgrade_7Sept11', 'LWCTOH02T2A-P-CI-0236-01.txt', 'clmbbackup', 'config20120321', 'write', 'kurzweg', 'logging20131031.txt', 'asr1000-rommon.153-1r.S.pkg', 'asr1000rp1-advipservicesk9.V153_2_S1_CSCUI03023.bin', 'config20140530', 'asr1000-rommon.153-3r.S.pkg', 'asr1000rp1-advipservicesk9.03.13.00.S.154-3.S-ext.bin', 'config20141110', 'config20141117', 'config20150817', 'logging2015824.txt', 'logging2015825.txt', 'logging201599.txt', 'logging2015910.txt', 'logging20151025.txt', 'logging2015114.txt', 'logging2015115.txt', 'logging2015118.txt', 'logging20151110.txt', 'logging20151111.txt', 'logging20151115.txt', 'logging20151116.txt', 'logging20151117.txt', 'logging20151122.txt', 'logging20151129.txt', 'logging20151130.txt', 'logging2015122.txt', 'logging2015123.txt', 'logging2015126.txt', 'config20160407', 'logging2016629.txt', 'logging2016718.txt', 'logging2016719.txt', 'logging201689.txt', 'logging2016824.txt', 'logging2016830.txt', 'config20160907', 'logging201697.txt', 'logging2016912.txt', 'logging2016926.txt', 'logging2016929.txt', 'logging2016106.txt', 'logging20161011.txt', 'logging20161110.txt', 'logging20161115.txt', 'PreRunConfig1115.cfg', 'asr1000-rommon-155-3r.S1.pkg', 'logging20161121.txt', 'logging20161117.txt', 'asr1000rp1-advipservicesk9.03.17.01.S.156-1.S1-std.bin', 'logging20161129.txt', 'logging20161215.txt', 'logging2017112.txt', 'logging2017117.txt', 'PAMUserPRE', 'logging2017103.txt', [2018-02-23 13:32:16,140] ERROR in app: Exception on /configbackup/7197 [GET]
Traceback (most recent call last):
  File "/usr/lib64/python2.7/site-packages/flask/app.py", line 1982, in wsgi_app
    response = self.full_dispatch_request()
  File "/usr/lib64/python2.7/site-packages/flask/app.py", line 1614, in full_dispatch_request
    rv = self.handle_user_exception(e)
  File "/usr/lib64/python2.7/site-packages/flask/app.py", line 1517, in handle_user_exception
    reraise(exc_type, exc_value, tb)
  File "/usr/lib64/python2.7/site-packages/flask/app.py", line 1612, in full_dispatch_request
    rv = self.dispatch_request()
  File "/usr/lib64/python2.7/site-packages/flask/app.py", line 1598, in dispatch_request
    return self.view_functions[rule.endpoint](**req.view_args)
  File "/usr/lib/python2.7/site-packages/connexion/decorators/decorator.py", line 66, in wrapper
    response = function(request)
  File "/usr/lib/python2.7/site-packages/connexion/decorators/validation.py", line 293, in wrapper
    return function(request)
  File "/usr/lib/python2.7/site-packages/connexion/decorators/decorator.py", line 42, in wrapper
    response = function(request)
  File "/usr/lib/python2.7/site-packages/connexion/decorators/parameter.py", line 219, in wrapper
    return function(**kwargs)
  File "/usr/apps/oneems/python/CISCO/asr920/bkup/config_backup.py", line 251, in perform_cb
    router_path="bootflash" )	)
  File "/usr/apps/oneems/python/CISCO/asr920/bkup/config_backup.py", line 195, in config_backup
    server_files = os.listdir(spath)
OSError: [Errno 13] Permission denied: '/usr/apps/oneems/config/bkup/greatlakes'
10.215.137.21 - - [23/Feb/2018 13:32:16] "GET /configbackup/7197 HTTP/1.1" 500 -
[2018-02-23 13:33:06,824] ERROR in app: Exception on /configbackup/7205 [GET]
Traceback (most recent call last):
  File "/usr/lib64/python2.7/site-packages/flask/app.py", line 1982, in wsgi_app
    response = self.full_dispatch_request()
  File "/usr/lib64/python2.7/site-packages/flask/app.py", line 1614, in full_dispatch_request
    rv = self.handle_user_exception(e)
  File "/usr/lib64/python2.7/site-packages/flask/app.py", line 1517, in handle_user_exception
    reraise(exc_type, exc_value, tb)
  File "/usr/lib64/python2.7/site-packages/flask/app.py", line 1612, in full_dispatch_request
    rv = self.dispatch_request()
  File "/usr/lib64/python2.7/site-packages/flask/app.py", line 1598, in dispatch_request
    return self.view_functions[rule.endpoint](**req.view_args)
  File "/usr/lib/python2.7/site-packages/connexion/decorators/decorator.py", line 66, in wrapper
    response = function(request)
  File "/usr/lib/python2.7/site-packages/connexion/decorators/validation.py", line 293, in wrapper
    return function(request)
  File "/usr/lib/python2.7/site-packages/connexion/decorators/decorator.py", line 42, in wrapper
    response = function(request)
  File "/usr/lib/python2.7/site-packages/connexion/decorators/parameter.py", line 219, in wrapper
    return function(**kwargs)
  File "/usr/apps/oneems/python/CISCO/asr920/bkup/config_backup.py", line 251, in perform_cb
    router_path="bootflash" )	)
  File "/usr/apps/oneems/python/CISCO/asr920/bkup/config_backup.py", line 195, in config_backup
    server_files = os.listdir(spath)
OSError: [Errno 13] Permission denied: '/usr/apps/oneems/config/bkup/greatlakes'
10.215.137.21 - - [23/Feb/2018 13:33:06] "GET /configbackup/7205 HTTP/1.1" 500 -
[2018-02-23 13:33:24,129] ERROR in app: Exception on /configbackup/7212 [GET]
Traceback (most recent call last):
  File "/usr/lib64/python2.7/site-packages/flask/app.py", line 1982, in wsgi_app
    response = self.full_dispatch_request()
  File "/usr/lib64/python2.7/site-packages/flask/app.py", line 1614, in full_dispatch_request
    rv = self.handle_user_exception(e)
  File "/usr/lib64/python2.7/site-packages/flask/app.py", line 1517, in handle_user_exception
    reraise(exc_type, exc_value, tb)
  File "/usr/lib64/python2.7/site-packages/flask/app.py", line 1612, in full_dispatch_request
    rv = self.dispatch_request()
  File "/usr/lib64/python2.7/site-packages/flask/app.py", line 1598, in dispatch_request
    return self.view_functions[rule.endpoint](**req.view_args)
  File "/usr/lib/python2.7/site-packages/connexion/decorators/decorator.py", line 66, in wrapper
    response = function(request)
  File "/usr/lib/python2.7/site-packages/connexion/decorators/validation.py", line 293, in wrapper
    return function(request)
  File "/usr/lib/python2.7/site-packages/connexion/decorators/decorator.py", line 42, in wrapper
    response = function(request)
  File "/usr/lib/python2.7/site-packages/connexion/decorators/parameter.py", line 219, in wrapper
    return function(**kwargs)
  File "/usr/apps/oneems/python/CISCO/asr920/bkup/config_backup.py", line 251, in perform_cb
    router_path="bootflash" )	)
  File "/usr/apps/oneems/python/CISCO/asr920/bkup/config_backup.py", line 195, in config_backup
    server_files = os.listdir(spath)
OSError: [Errno 13] Permission denied: '/usr/apps/oneems/config/bkup/greatlakes'
10.215.137.21 - - [23/Feb/2018 13:33:24] "GET /configbackup/7212 HTTP/1.1" 500 -
 * Running on http://0.0.0.0:8084/ (Press CTRL+C to quit)
[2018-02-23 13:34:43,919] ERROR in app: Exception on /configbackup/7197 [GET]
Traceback (most recent call last):
  File "/usr/lib64/python2.7/site-packages/flask/app.py", line 1982, in wsgi_app
    response = self.full_dispatch_request()
  File "/usr/lib64/python2.7/site-packages/flask/app.py", line 1614, in full_dispatch_request
    rv = self.handle_user_exception(e)
  File "/usr/lib64/python2.7/site-packages/flask/app.py", line 1517, in handle_user_exception
    reraise(exc_type, exc_value, tb)
  File "/usr/lib64/python2.7/site-packages/flask/app.py", line 1612, in full_dispatch_request
    rv = self.dispatch_request()
  File "/usr/lib64/python2.7/site-packages/flask/app.py", line 1598, in dispatch_request
    return self.view_functions[rule.endpoint](**req.view_args)
  File "/usr/lib/python2.7/site-packages/connexion/decorators/decorator.py", line 66, in wrapper
    response = function(request)
  File "/usr/lib/python2.7/site-packages/connexion/decorators/validation.py", line 293, in wrapper
    return function(request)
  File "/usr/lib/python2.7/site-packages/connexion/decorators/decorator.py", line 42, in wrapper
    response = function(request)
  File "/usr/lib/python2.7/site-packages/connexion/decorators/parameter.py", line 219, in wrapper
    return function(**kwargs)
  File "/usr/apps/oneems/python/CISCO/asr920/bkup/config_backup.py", line 251, in perform_cb
    router_path="bootflash" )	)
  File "/usr/apps/oneems/python/CISCO/asr920/bkup/config_backup.py", line 195, in config_backup
    server_files = os.listdir(spath)
OSError: [Errno 13] Permission denied: '/usr/apps/oneems/config/bkup/greatlakes'
10.215.137.21 - - [23/Feb/2018 13:34:43] "GET /configbackup/7197 HTTP/1.1" 500 -
{'status': True, 'data': '[i] created connection'}
[i] SNMP command : snmpwalk -v2c -c 2Y2LHTZP31 10.202.97.148 1.3.6.1.2.1.1
[i] snmp data : {'sys_location': '', 'upsince': '452 days 12:48', 'nodeVersion': '15.6(1)S1', 'market': 'OPW', 'devicename': 'LWCTOH02T2A-P-CI-0236-01', 'deviceos': 'IOS-XE', 'lastpolled': '02-23-2018 13:34', 'datepolled': datetime.date(2018, 2, 23), 'deviceseries': 'ASR1000', 'sys_contact': '', 'model': 'CISCO', 'timepolled': '20182302 13:34:40'}
[i] name : LWCTOH02T2A-P-CI-0236-01-10.202.97.148-RUNNINGCONFIG-23-0-20182302133440.cfg
[i] exec dir bootflash: on router ipaddr:10.202.97.148, username:njbbcpnebh, password:JAxa466
[i] ROUTER FILES : ['lost+found', 'tracelogs', 'asr1000rp1-advipservicesk9.02.04.01.122-33.XND1.bin', '.installer', 'core', '.prst_sync', '.rollback_timer', 'CLMBOHIQT1A-CI-236-01.txt', 'no', '384_backup_9may10', 'pre_QOS_Config_13Oct10', 'post_QOS_Config_13Oct10', 'asr1000rp1-adventerprisek9.03.02.01.S.151-1.S1.bin', 'CLMBOHIQT1A-CI-236-01_backup_22Apr11', 'CLMBOHIQT1A-CI-236-01_postUpg_22Apr11', 'asr1000rp1-advipservicesk9.03.02.01.S.151-1.S1.bin', 'pre3.2.1upgrade_7Sept11', 'post3.2.1upgrade_7Sept11', 'LWCTOH02T2A-P-CI-0236-01.txt', 'clmbbackup', 'config20120321', 'write', 'kurzweg', 'logging20131031.txt', 'asr1000-rommon.153-1r.S.pkg', 'asr1000rp1-advipservicesk9.V153_2_S1_CSCUI03023.bin', 'config20140530', 'asr1000-rommon.153-3r.S.pkg', 'asr1000rp1-advipservicesk9.03.13.00.S.154-3.S-ext.bin', 'config20141110', 'config20141117', 'config20150817', 'logging2015824.txt', 'logging2015825.txt', 'logging201599.txt', 'logging2015910.txt', 'logging20151025.txt', 'logging2015114.txt', 'logging2015115.txt', 'logging2015118.txt', 'logging20151110.txt', 'logging20151111.txt', 'logging20151115.txt', 'logging20151116.txt', 'logging20151117.txt', 'logging20151122.txt', 'logging20151129.txt', 'logging20151130.txt', 'logging2015122.txt', 'logging2015123.txt', 'logging2015126.txt', 'config20160407', 'logging2016629.txt', 'logging2016718.txt', 'logging2016719.txt', 'logging201689.txt', 'logging2016824.txt', 'logging2016830.txt', 'config20160907', 'logging201697.txt', 'logging2016912.txt', 'logging2016926.txt', 'logging2016929.txt', 'logging2016106.txt', 'logging20161011.txt', 'logging20161110.txt', 'logging20161115.txt', 'PreRunConfig1115.cfg', 'asr1000-rommon-155-3r.S1.pkg', 'logging20161121.txt', 'logging20161117.txt', 'asr1000rp1-advipservicesk9.03.17.01.S.156-1.S1-std.bin', 'logging20161129.txt', 'logging20161215.txt', 'logging2017112.txt', 'logging2017117.txt', 'PAMUserPRE', 'logging2017103.txt', 'logging20171019.txt', 'config20171115_pre-bw-upgrade', 'oneEMSPRE', 'LWCTOH02T2A-P-CI-0236-01-10.202.97.148-RUNNINGCONFIG-23-0-20182302152257.cfg', 'LWCTOH02T2A-P-CI-0236-01-10.202.97.148-RUNNINGCONFIG-23-0-20182302082507.cfg', 'LWCTOH02T2A-P-CI-0236-01-10.202.97.148-RUNNINGCONFIG-23-0-20182302122627.cfg', 'free)']
[i] SNMP command : snmpwalk -v2c -c 2Y2LHTZP31 10.202.97.148 1.3.6.1.2.1.1
[i] snmp data : {'sys_location': '', 'upsince': '452 days 12:49', 'nodeVersion': '15.6(1)S1', 'market': 'OPW', 'devicename': 'LWCTOH02T2A-P-CI-0236-01', 'deviceos': 'IOS-XE', 'lastpolled': '02-23-2018 13:35', 'datepolled': datetime.date(2018, 2, 23), 'deviceseries': 'ASR1000', 'sys_contact': '', 'model': 'CISCO', 'timepolled': '20182302 13:35:04'}
[i] name : LWCTOH02T2A-P-CI-0236-01-10.202.97.148-RUNNINGCONFIG-23-0-20182302133504.cfg
[i] exec dir bootflash: on router ipaddr:10.202.97.148, username:njbbcpnebh, password:JAxa466
[i] ROUTER FILES : ['lost+found', 'tracelogs', 'asr1000rp1-advipservicesk9.02.04.01.122-33.XND1.bin', '.installer', 'core', '.prst_sync', '.rollback_timer', 'CLMBOHIQT1A-CI-236-01.txt', 'no', '384_backup_9may10', 'pre_QOS_Config_13Oct10', 'post_QOS_Config_13Oct10', 'asr1000rp1-adventerprisek9.03.02.01.S.151-1.S1.bin', 'CLMBOHIQT1A-CI-236-01_backup_22Apr11', 'CLMBOHIQT1A-CI-236-01_postUpg_22Apr11', 'asr1000rp1-advipservicesk9.03.02.01.S.151-1.S1.bin', 'pre3.2.1upgrade_7Sept11', 'post3.2.1upgrade_7Sept11', 'LWCTOH02T2A-P-CI-0236-01.txt', 'clmbbackup', 'config20120321', 'write', 'kurzweg',[2018-02-23 13:35:07,993] ERROR in app: Exception on /configbackup/7197 [GET]
Traceback (most recent call last):
  File "/usr/lib64/python2.7/site-packages/flask/app.py", line 1982, in wsgi_app
    response = self.full_dispatch_request()
  File "/usr/lib64/python2.7/site-packages/flask/app.py", line 1614, in full_dispatch_request
    rv = self.handle_user_exception(e)
  File "/usr/lib64/python2.7/site-packages/flask/app.py", line 1517, in handle_user_exception
    reraise(exc_type, exc_value, tb)
  File "/usr/lib64/python2.7/site-packages/flask/app.py", line 1612, in full_dispatch_request
    rv = self.dispatch_request()
  File "/usr/lib64/python2.7/site-packages/flask/app.py", line 1598, in dispatch_request
    return self.view_functions[rule.endpoint](**req.view_args)
  File "/usr/lib/python2.7/site-packages/connexion/decorators/decorator.py", line 66, in wrapper
    response = function(request)
  File "/usr/lib/python2.7/site-packages/connexion/decorators/validation.py", line 293, in wrapper
    return function(request)
  File "/usr/lib/python2.7/site-packages/connexion/decorators/decorator.py", line 42, in wrapper
    response = function(request)
  File "/usr/lib/python2.7/site-packages/connexion/decorators/parameter.py", line 219, in wrapper
    return function(**kwargs)
  File "/usr/apps/oneems/python/CISCO/asr920/bkup/config_backup.py", line 251, in perform_cb
    router_path="bootflash" )	)
  File "/usr/apps/oneems/python/CISCO/asr920/bkup/config_backup.py", line 195, in config_backup
    server_files = os.listdir(spath)
OSError: [Errno 13] Permission denied: '/usr/apps/oneems/config/bkup/greatlakes'
10.215.137.21 - - [23/Feb/2018 13:35:07] "GET /configbackup/7197 HTTP/1.1" 500 -
 * Running on http://0.0.0.0:8084/ (Press CTRL+C to quit)
[2018-02-23 13:58:00,895] ERROR in app: Exception on /configbackup/7197 [GET]
Traceback (most recent call last):
  File "/usr/lib64/python2.7/site-packages/flask/app.py", line 1982, in wsgi_app
    response = self.full_dispatch_request()
  File "/usr/lib64/python2.7/site-packages/flask/app.py", line 1614, in full_dispatch_request
    rv = self.handle_user_exception(e)
  File "/usr/lib64/python2.7/site-packages/flask/app.py", line 1517, in handle_user_exception
    reraise(exc_type, exc_value, tb)
  File "/usr/lib64/python2.7/site-packages/flask/app.py", line 1612, in full_dispatch_request
    rv = self.dispatch_request()
  File "/usr/lib64/python2.7/site-packages/flask/app.py", line 1598, in dispatch_request
    return self.view_functions[rule.endpoint](**req.view_args)
  File "/usr/lib/python2.7/site-packages/connexion/decorators/decorator.py", line 66, in wrapper
    response = function(request)
  File "/usr/lib/python2.7/site-packages/connexion/decorators/validation.py", line 293, in wrapper
    return function(request)
  File "/usr/lib/python2.7/site-packages/connexion/decorators/decorator.py", line 42, in wrapper
    response = function(request)
  File "/usr/lib/python2.7/site-packages/connexion/decorators/parameter.py", line 219, in wrapper
    return function(**kwargs)
  File "/usr/apps/oneems/python/CISCO/asr920/bkup/config_backup.py", line 251, in perform_cb
    router_path="bootflash" )	)
  File "/usr/apps/oneems/python/CISCO/asr920/bkup/config_backup.py", line 195, in config_backup
    server_files = os.listdir(spath)
OSError: [Errno 13] Permission denied: '/usr/apps/oneems/config/bkup/greatlakes'
10.215.137.21 - - [23/Feb/2018 13:58:00] "GET /configbackup/7197 HTTP/1.1" 500 -
{'status': True, 'data': '[i] created connection'}
[i] SNMP command : snmpwalk -v2c -c 2Y2LHTZP31 10.202.97.148 1.3.6.1.2.1.1
[i] snmp data : {'sys_location': '', 'upsince': '452 days 13:12', 'nodeVersion': '15.6(1)S1', 'market': 'OPW', 'devicename': 'LWCTOH02T2A-P-CI-0236-01', 'deviceos': 'IOS-XE', 'lastpolled': '02-23-2018 13:57', 'datepolled': datetime.date(2018, 2, 23), 'deviceseries': 'ASR1000', 'sys_contact': '', 'model': 'CISCO', 'timepolled': '20182302135757'}
[i] name : LWCTOH02T2A-P-CI-0236-01-10.202.97.148-RUNNING_CONFIG-23-0-20182302135757.cfg
[i] exec dir bootflash: on router ipaddr:10.202.97.148, username:njbbcpnebh, password:JAxa466
[i] ROUTER FILES : ['lost+found', 'tracelogs', 'asr1000rp1-advipservicesk9.02.04.01.122-33.XND1.bin', '.installer', 'core', '.prst_sync', '.rollback_timer', 'CLMBOHIQT1A-CI-236-01.txt', 'no', '384_backup_9may10', 'pre_QOS_Config_13Oct10', 'post_QOS_Config_13Oct10', 'asr1000rp1-adventerprisek9.03.02.01.S.151-1.S1.bin', 'CLMBOHIQT1A-CI-236-01_backup_22Apr11', 'CLMBOHIQT1A-CI-236-01_postUpg_22Apr11', 'asr1000rp1-advipservicesk9.03.02.01.S.151-1.S1.bin', 'pre3.2.1upgrade_7Sept11', 'post3.2.1upgrade_7Sept11', 'LWCTOH02T2A-P-CI-0236-01.txt', 'clmbbackup', 'config20120321', 'write', 'kurzweg', 'logging20131031.txt', 'asr1000-rommon.153-1r.S.pkg', 'asr1000rp1-advipservicesk9.V153_2_S1_CSCUI03023.bin', 'config20140530', 'asr1000-rommon.153-3r.S.pkg', 'asr1000rp1-advipservicesk9.03.13.00.S.154-3.S-ext.bin', 'config20141110', 'config20141117', 'config20150817', 'logging2015824.txt', 'logging2015825.txt', 'logging201599.txt', 'logging2015910.txt', 'logging20151025.txt', 'logging2015114.txt', 'logging2015115.txt', 'logging2015118.txt', 'logging20151110.txt', 'logging20151111.txt', 'logging20151115.txt', 'logging20151116.txt', 'logging20151117.txt', 'logging20151122.txt', 'logging20151129.txt', 'logging20151130.txt', 'logging2015122.txt', 'logging2015123.txt', 'logging2015126.txt', 'config20160407', 'logging2016629.txt', 'logging2016718.txt', 'logging2016719.txt', 'logging201689.txt', 'logging2016824.txt', 'logging2016830.txt', 'config20160907', 'logging201697.txt', 'logging2016912.txt', 'logging2016926.txt', 'logging2016929.txt', 'logging2016106.txt', 'logging20161011.txt', 'logging20161110.txt', 'logging20161115.txt', 'PreRunConfig1115.cfg', 'asr1000-rommon-155-3r.S1.pkg', 'logging20161121.txt', 'logging20161117.txt', 'asr1000rp1-advipservicesk9.03.17.01.S.156-1.S1-std.bin', 'logging20161129.txt', 'logging20161215.txt', 'logging2017112.txt', 'logging2017117.txt', 'PAMUserPRE', 'logging2017103.txt', 'logging20171019.txt', 'config20171115_pre-bw-upgrade', 'oneEMSPRE', 'LWCTOH02T2A-P-CI-0236-01-10.202.97.148-RUNNINGCONFIG-23-0-20182302152257.cfg', 'LWCTOH02T2A-P-CI-0236-01-10.202.97.148-RUNNINGCONFIG-23-0-20182302082507.cfg', 'LWCTOH02T2A-P-CI-0236-01-10.202.97.148-RUNNINGCONFIG-23-0-20182302122627.cfg', 'LWCTOH02T2A-P-CI-0236-01-10.202.97.148-RUNNING_CONFIG-23-0-20182302135558.cfg', 'free)']
[i] SNMP command : snmpwalk -v2c -c 2Y2LHTZP31 10.202.97.148 1.3.6.1.2.1.1
[i] snmp data : {'sys_location': '', 'upsince': '452 days 13:12', 'nodeVersion': '15.6(1)S1', 'market': 'OPW', 'devicename': 'LWCTOH02T2A-P-CI-0236-01', 'deviceos': 'IOS-XE', 'lastpolled': '02-23-2018 13:58', 'datepolled': datetime.date(2018, 2, 23), 'deviceseries': 'ASR1000', 'sys_contact': '', 'model': 'CISCO', 'timepolled': '20182302135835'}
[i] name : LWCTOH02T2A-P-CI-0236-01-10.202.97.148-RUNNING_CONFIG-23-0-20182302135835.cfg
[i] exec dir bootflash: on router ipaddr:10.202.97.148, username:njbbcpnebh, password:JAxa466
[i] ROUTER FILES : ['lost+found', 'tracelogs', 'asr1000rp1-advipservicesk9.02.04.01.122-33.XND1.bin', '.installer', 'core', '.prst_sync', '.rollback_timer', 'CLMBOHIQT1A-CI-236-01.txt', 'no', '384_backup_9may10', 'pre_QOS_Config_13Oct10', 'post_QOS_Config_13Oct10', 'asr1000rp1-adventerprisek9.03.02.01.S.151-1.S1.bin', 'CLMBOHIQT1A-CI-236-01_backup_22Apr11', 'CLMBOHIQT1A-CI-236-01_postUpg_22Apr11', 'asr1000rp1-advipservicesk9.03.02.01.S.151-1.S1.bin', 'pre3.2.1upgrade_7Sept11', 'post3.2.1upgrade_7Sept11', 'LWCTO[2018-02-23 13:58:39,011] ERROR in app: Exception on /configbackup/7197 [GET]
Traceback (most recent call last):
  File "/usr/lib64/python2.7/site-packages/flask/app.py", line 1982, in wsgi_app
    response = self.full_dispatch_request()
  File "/usr/lib64/python2.7/site-packages/flask/app.py", line 1614, in full_dispatch_request
    rv = self.handle_user_exception(e)
  File "/usr/lib64/python2.7/site-packages/flask/app.py", line 1517, in handle_user_exception
    reraise(exc_type, exc_value, tb)
  File "/usr/lib64/python2.7/site-packages/flask/app.py", line 1612, in full_dispatch_request
    rv = self.dispatch_request()
  File "/usr/lib64/python2.7/site-packages/flask/app.py", line 1598, in dispatch_request
    return self.view_functions[rule.endpoint](**req.view_args)
  File "/usr/lib/python2.7/site-packages/connexion/decorators/decorator.py", line 66, in wrapper
    response = function(request)
  File "/usr/lib/python2.7/site-packages/connexion/decorators/validation.py", line 293, in wrapper
    return function(request)
  File "/usr/lib/python2.7/site-packages/connexion/decorators/decorator.py", line 42, in wrapper
    response = function(request)
  File "/usr/lib/python2.7/site-packages/connexion/decorators/parameter.py", line 219, in wrapper
    return function(**kwargs)
  File "/usr/apps/oneems/python/CISCO/asr920/bkup/config_backup.py", line 251, in perform_cb
    router_path="bootflash" )	)
  File "/usr/apps/oneems/python/CISCO/asr920/bkup/config_backup.py", line 195, in config_backup
    server_files = os.listdir(spath)
OSError: [Errno 13] Permission denied: '/usr/apps/oneems/config/bkup/greatlakes'
10.215.137.21 - - [23/Feb/2018 13:58:39] "GET /configbackup/7197 HTTP/1.1" 500 -
H02T2A-P-CI-0236-01.txt', 'clmbbackup', 'config20120321', 'write', 'kurzweg', 'logging20131031.txt', 'asr1000-rommon.153-1r.S.pkg', 'asr1000rp1-advipservicesk9.V153_2_S1_CSCUI03023.bin', 'config20140530', 'asr1000-rommon.153-3r.S.pkg', 'asr1000rp1-advipservicesk9.03.13.00.S.154-3.S-ext.bin', 'config20141110', 'config20141117', 'config20150817', 'logging2015824.txt', 'logging2015825.txt', 'logging201599.txt', 'logging2015910.txt', 'logging20151025.txt', 'logging2015114.txt', 'logging2015115.txt', 'logging2015118.txt', 'logging20151110.txt', 'logging20151111.txt', 'logging20151115.txt', 'logging20151116.txt', 'logging20151117.txt', 'logging20151122.txt', 'logging20151129.txt', 'logging20151130.txt', 'logging2015122.txt', 'logging2015123.txt', 'logging2015126.txt', 'config20160407', 'logging2016629.txt', 'logging2016718.txt', 'logging2016719.txt', 'logging201689.txt', 'logging2016824.txt', 'logging2016830.txt', 'config20160907', 'logging201697.txt', 'logging2016912.txt', 'logging2016926.txt', 'logging2016929.txt', 'logging2016106.txt', 'logging20161011.txt', 'logging20161110.txt', 'logging20161115.txt', 'PreRunConfig1115.cfg', 'asr1000-rommon-155-3r.S1.pkg', 'logging20161121.txt', 'logging20161117.txt', 'asr1000rp1-advipservicesk9.03.17.01.S.156-1.S1-std.bin', 'logging20161129.txt', 'logging20161215.txt', 'logging2017112.txt', 'logging2017117.txt', 'PAMUserPRE', 'logging2017103.txt', 'logging20171019.txt', 'config20171115_pre-bw-upgrade', 'oneEMSPRE', 'LWCTOH02T2A-P-CI-0236-01-10.202.97.148-RUNNINGCONFIG-23-0-20182302152257.cfg', 'LWCTOH02T2A-P-CI-0236-01-10.202.97.148-RUNNINGCONFIG-23-0-20182302082507.cfg', 'LWCTOH02T2A-P-CI-0236-01-10.202.97.148-RUNNINGCONFIG-23-0-20182302122627.cfg', 'LWCTOH02T2A-P-CI-0236-01-10.202.97.148-RUNNING_CONFIG-23-0-20182302135558.cfg', 'free)']
[i] SNMP command : snmpwalk -v2c -c 2Y2LHTZP31 10.202.97.148 1.3.6.1.2.1.1
[i] snmp data : {'sys_location': '', 'upsince': '452 days 13:12', 'nodeVersion': '15.6(1)S1', 'market': 'OPW', 'devicename': 'LWCTOH02T2A-P-CI-0236-01', 'deviceos': 'IOS-XE', 'lastpolled': '02-23-2018 13:58', 'datepolled': datetime.date(2018, 2, 23), 'deviceseries': 'ASR1000', 'sys_contact': '', 'model': 'CISCO', 'timepolled': '20182302135845'}
[i] name : LWCTOH02T2A-P-CI-0236-01-10.202.97.148-RUNNING_CONFIG-23-0-20182302135845.cfg
[i] exec dir bootflash: on router ipaddr:10.202.97.148, username:njbbcpnebh, password:JAxa466
[i] ROUTER FILES : ['lost+found', 'tracelogs', 'asr1000rp1-advipservicesk9.02.04.01.122-33.XND1.bin', '.installer', 'core', '.prst_sync', '.rollback_timer', 'CLMBOHIQT1A-CI-236-01.txt', 'no', '384_backup_9may10', 'pre_QOS_Config_13Oct10', 'post_QOS_Config_13Oct10', 'asr1000rp1-adventerprisek9.03.02.01.S.151-1.S1.bin', 'CLMBOHIQT1A-CI-236-01_backup_22Apr11', 'CLMBOHIQT1A-CI-236-01_postUpg_22Apr11', 'asr1000rp1-advipservicesk9.03.02.01.S.151-1.S1.bin', 'pre3.2.1upgrade_7Sept11', 'post3.2.1upgrade_7Sept11', 'LWCTOH02T2A-P-CI-0236-01.txt', 'clmbbackup', 'config20120321', 'write', 'kurzweg', 'logging20131031.txt', 'asr1000-rommon.153-1r.S.pkg', 'asr1000rp1-advipservicesk9.V153_2_S1_CSCUI03023.bin', 'config20140530', 'asr1000-rommon.153-3r.S.pkg', 'asr1000rp1-advipservicesk9.03.13.00.S.154-3.S-ext.bin', 'config20141110', 'config20141117', 'config20150817', 'logging2015824.txt', 'logging2015825.txt', 'logging201599.txt', 'logging2015910.txt', 'logging20151025.txt', 'logging2015114.txt', 'logging2015115.txt', 'logging2015118.txt', 'logging20151110.txt', 'logging20151111.txt', 'logging20151115.txt', 'logging20151116.txt', 'logging20151117.txt', 'logging20151122.txt', 'logging20151129.txt', 'logging20151130.txt', 'logging2015122.txt', 'logging2015123.txt', 'logging2015126.txt', 'config20160407', 'logging2016629.txt', 'logging2016718.txt', 'logging2016719.txt', 'logging201689.txt', 'logging2016824.txt', 'logging2016830.txt', 'config20160907', 'logging201697.txt', 'logging2016912.txt', 'logging2016926.txt', 'logging2016929.txt', 'logging2016106.txt', 'logging20161011.txt', 'logging20161110.txt', 'logging20161115.txt', 'PreRunConfig1115.cfg', 'asr1000-rommon-155-3r.S1.pkg'[2018-02-23 13:58:48,445] ERROR in app: Exception on /configbackup/7197 [GET]
Traceback (most recent call last):
  File "/usr/lib64/python2.7/site-packages/flask/app.py", line 1982, in wsgi_app
    response = self.full_dispatch_request()
  File "/usr/lib64/python2.7/site-packages/flask/app.py", line 1614, in full_dispatch_request
    rv = self.handle_user_exception(e)
  File "/usr/lib64/python2.7/site-packages/flask/app.py", line 1517, in handle_user_exception
    reraise(exc_type, exc_value, tb)
  File "/usr/lib64/python2.7/site-packages/flask/app.py", line 1612, in full_dispatch_request
    rv = self.dispatch_request()
  File "/usr/lib64/python2.7/site-packages/flask/app.py", line 1598, in dispatch_request
    return self.view_functions[rule.endpoint](**req.view_args)
  File "/usr/lib/python2.7/site-packages/connexion/decorators/decorator.py", line 66, in wrapper
    response = function(request)
  File "/usr/lib/python2.7/site-packages/connexion/decorators/validation.py", line 293, in wrapper
    return function(request)
  File "/usr/lib/python2.7/site-packages/connexion/decorators/decorator.py", line 42, in wrapper
    response = function(request)
  File "/usr/lib/python2.7/site-packages/connexion/decorators/parameter.py", line 219, in wrapper
    return function(**kwargs)
  File "/usr/apps/oneems/python/CISCO/asr920/bkup/config_backup.py", line 251, in perform_cb
    router_path="bootflash" )	)
  File "/usr/apps/oneems/python/CISCO/asr920/bkup/config_backup.py", line 195, in config_backup
    server_files = os.listdir(spath)
OSError: [Errno 13] Permission denied: '/usr/apps/oneems/config/bkup/greatlakes'
10.215.137.21 - - [23/Feb/2018 13:58:48] "GET /configbackup/7197 HTTP/1.1" 500 -
 * Running on http://0.0.0.0:8084/ (Press CTRL+C to quit)
10.215.137.21 - - [26/Feb/2018 11:57:23] "GET /configbackup/4036 HTTP/1.1" 200 -
